{
  "J Yadav": 4.14,
  "R Ashwin": 5.85,
  "S Nadeem": 6.14,
  "Parvez Rasool": 6.2,
  "MC Henriques": 6.32,
  "Z Khan": 6.46,
  "MA Starc": 6.77,
  "GB Hogg": 6.86,
  "M Vijay": 7,
  "Sandeep Sharma": 7
}